\relax 
\providecommand\hyper@newdestlabel[2]{}
\@setckpt{math}{
\setcounter{page}{1}
\setcounter{equation}{0}
\setcounter{enumi}{0}
\setcounter{enumii}{0}
\setcounter{enumiii}{0}
\setcounter{enumiv}{0}
\setcounter{footnote}{0}
\setcounter{mpfootnote}{0}
\setcounter{part}{0}
\setcounter{chapter}{0}
\setcounter{section}{0}
\setcounter{subsection}{0}
\setcounter{subsubsection}{0}
\setcounter{paragraph}{0}
\setcounter{subparagraph}{0}
\setcounter{figure}{0}
\setcounter{table}{0}
\setcounter{parentequation}{0}
\setcounter{lstnumber}{1}
\setcounter{tikzumlPackageLayers}{3}
\setcounter{tikzumlFragmentLayers}{3}
\setcounter{tikzumlStateLayers}{3}
\setcounter{tikzumlComponentLayers}{3}
\setcounter{tikzumlPackageClassNum}{0}
\setcounter{tikzumlPackageSubPackageNum}{0}
\setcounter{tikzumlRelationNum}{1}
\setcounter{tikzumlNoteNum}{1}
\setcounter{pos}{0}
\setcounter{posT}{0}
\setcounter{posStereo}{0}
\setcounter{tikzumlPackageLevel}{0}
\setcounter{tikzumlSystemUseCaseNum}{0}
\setcounter{tikzumlSystemLevel}{0}
\setcounter{tikzumlUseCaseNum}{0}
\setcounter{tikzumlActorNum}{0}
\setcounter{tikzumlStateJoinNum}{0}
\setcounter{tikzumlStateDecisionNum}{0}
\setcounter{tikzumlStateInitialNum}{0}
\setcounter{tikzumlStateFinalNum}{0}
\setcounter{tikzumlStateEnterNum}{0}
\setcounter{tikzumlStateExitNum}{0}
\setcounter{tikzumlStateEndNum}{0}
\setcounter{tikzumlStateHistoryNum}{0}
\setcounter{tikzumlStateDeepHistoryNum}{0}
\setcounter{tikzumlStateLevel}{0}
\setcounter{tikzumlStateSubStateNum}{0}
\setcounter{tikzumlStateText}{0}
\setcounter{tikzumlObjectNum}{0}
\setcounter{tikzumlCallLevel}{0}
\setcounter{tikzumlCallNum}{0}
\setcounter{tikzumlFragmentLevel}{0}
\setcounter{tikzumlFragmentLevelNum}{0}
\setcounter{tikzumlFragmentNum}{0}
\setcounter{tikzumlFragmentPartNum}{0}
\setcounter{tikzumlCallStartFragmentNum}{0}
\setcounter{tikzumlCallEndFragmentNum}{0}
\setcounter{tikzumlSDNodeNum}{0}
\setcounter{tikzumlComponentLevel}{0}
\setcounter{tikzumlComponentSubComponentNum}{0}
\setcounter{tikzumlConnectorNum}{1}
\setcounter{ContinuedFloat}{0}
\setcounter{subfigure}{0}
\setcounter{subtable}{0}
\setcounter{@index}{0}
\setcounter{@plane}{0}
\setcounter{@row}{0}
\setcounter{@col}{0}
\setcounter{use@args}{0}
\setcounter{@record}{0}
\setcounter{arg@index}{0}
\setcounter{break@count}{0}
\setcounter{index@count}{0}
\setcounter{loop@count}{0}
\setcounter{VerbboxLineNo}{0}
\setcounter{Item}{0}
\setcounter{Hfootnote}{0}
\setcounter{bookmark@seq@number}{0}
\setcounter{AM@survey}{0}
\setcounter{@pps}{0}
\setcounter{@ppsavesec}{0}
\setcounter{@ppsaveapp}{0}
\setcounter{float@type}{4}
}
