\relax 
\providecommand\hyper@newdestlabel[2]{}
\providecommand\HyperFirstAtBeginDocument{\AtBeginDocument}
\HyperFirstAtBeginDocument{\ifx\hyper@anchor\@undefined
\global\let\oldcontentsline\contentsline
\gdef\contentsline#1#2#3#4{\oldcontentsline{#1}{#2}{#3}}
\global\let\oldnewlabel\newlabel
\gdef\newlabel#1#2{\newlabelxx{#1}#2}
\gdef\newlabelxx#1#2#3#4#5#6{\oldnewlabel{#1}{{#2}{#3}}}
\AtEndDocument{\ifx\hyper@anchor\@undefined
\let\contentsline\oldcontentsline
\let\newlabel\oldnewlabel
\fi}
\fi}
\global\let\hyper@last\relax 
\gdef\HyperFirstAtBeginDocument#1{#1}
\providecommand\HyField@AuxAddToFields[1]{}
\providecommand\HyField@AuxAddToCoFields[2]{}
\bibstyle{ieeetr}
\citation{adel1}
\citation{adel1}
\citation{inj1}
\@writefile{lol}{\addvspace {10pt}}
\@writefile{lol}{\addvspace {10pt}}
\citation{inj1}
\citation{adel1}
\citation{adel1}
\citation{adel1}
\citation{adel1}
\citation{inj1}
\citation{inj1}
\citation{frozspin}
\citation{adel1}
\@writefile{toc}{\contentsline {section}{\numberline {1.1}Introduction and background}{1}{section.1.1}}
\@writefile{toc}{\contentsline {subsection}{\numberline {1.1.1}The frozen spin method}{1}{subsection.1.1.1}}
\newlabel{eq:edip}{{1.1}{1}{The frozen spin method}{equation.1.1.1}{}}
\newlabel{eq:edip@cref}{{[equation][1][1]1.1}{[1][1][]1}}
\newlabel{eq:adip}{{1.2}{1}{The frozen spin method}{equation.1.1.2}{}}
\newlabel{eq:adip@cref}{{[equation][2][1]1.2}{[1][1][]1}}
\newlabel{eq:erfield}{{1.3}{1}{The frozen spin method}{equation.1.1.3}{}}
\newlabel{eq:erfield@cref}{{[equation][3][1]1.3}{[1][1][]1}}
\citation{adel1}
\citation{adel1}
\@writefile{toc}{\contentsline {section}{\numberline {1.2}The simulation}{2}{section.1.2}}
\@writefile{toc}{\contentsline {subsection}{\numberline {1.2.1}Equations of motion derivation}{2}{subsection.1.2.1}}
\citation{grav1}
\@writefile{toc}{\contentsline {subsection}{\numberline {1.2.2}Proper time and decay}{3}{subsection.1.2.2}}
\@writefile{toc}{\contentsline {subsection}{\numberline {1.2.3}The E and B fields}{3}{subsection.1.2.3}}
\citation{inj1}
\citation{inj1}
\@writefile{lof}{\contentsline {figure}{\numberline {1.1}{\ignorespaces Plots from \cite  {inj1}. Left: $B_z(x,z)$, transversal section of the perturbator; Right: radial profile $B_z(r)$ on $z=0$\relax }}{4}{figure.caption.4}}
\providecommand*\caption@xref[2]{\@setref\relax\@undefined{#1}}
\newlabel{fig:orig_pert}{{1.1}{4}{Plots from \cite {inj1}. Left: $B_z(x,z)$, transversal section of the perturbator; Right: radial profile $B_z(r)$ on $z=0$\relax }{figure.caption.4}{}}
\newlabel{fig:orig_pert@cref}{{[figure][1][1]1.1}{[1][4][]4}}
\@writefile{lof}{\contentsline {figure}{\numberline {1.2}{\ignorespaces Interpolation of points taken from Fig.\nobreakspace  {}\ref  {fig:orig_pert} plot, with a 5th order spline.\relax }}{4}{figure.caption.5}}
\newlabel{fig:Bz_int}{{1.2}{4}{Interpolation of points taken from Fig.~\ref {fig:orig_pert} plot, with a 5th order spline.\relax }{figure.caption.5}{}}
\newlabel{fig:Bz_int@cref}{{[figure][2][1]1.2}{[1][4][]4}}
\@writefile{lof}{\contentsline {figure}{\numberline {1.3}{\ignorespaces The resulting perturbator field approximation in 3D, here on the $z=0$ plane\relax }}{4}{figure.caption.5}}
\newlabel{fig:3D_pert}{{1.3}{4}{The resulting perturbator field approximation in 3D, here on the $z=0$ plane\relax }{figure.caption.5}{}}
\newlabel{fig:3D_pert@cref}{{[figure][3][1]1.3}{[1][4][]4}}
\@writefile{toc}{\contentsline {subsection}{\numberline {1.2.4}Ramping}{4}{subsection.1.2.4}}
\newlabel{eq:rampdown}{{1.18}{4}{Ramping}{equation.1.2.18}{}}
\newlabel{eq:rampdown@cref}{{[equation][18][1]1.18}{[1][4][]4}}
\@writefile{lof}{\contentsline {figure}{\numberline {1.4}{\ignorespaces The ramp down factor $k(t)$.\relax }}{5}{figure.caption.6}}
\newlabel{fig:rampdown}{{1.4}{5}{The ramp down factor $k(t)$.\relax }{figure.caption.6}{}}
\newlabel{fig:rampdown@cref}{{[figure][4][1]1.4}{[1][4][]5}}
\@writefile{toc}{\contentsline {subsection}{\numberline {1.2.5}Final equations}{5}{subsection.1.2.5}}
\newlabel{eq:odesystem}{{1.19}{5}{Final equations}{equation.1.2.19}{}}
\newlabel{eq:odesystem@cref}{{[equation][19][1]1.19}{[1][5][]5}}
\@writefile{toc}{\contentsline {section}{\numberline {1.3}Implementation}{5}{section.1.3}}
\citation{solveivp}
\newlabel{alg:main}{{1}{6}{Main loop idea \relax }{algorithm.1}{}}
\newlabel{alg:main@cref}{{[algorithm][1][]1}{[1][6][]6}}
\@writefile{loa}{\contentsline {algorithm}{\numberline {1}{\ignorespaces Main loop idea \relax }}{6}{algorithm.1}}
\@writefile{toc}{\contentsline {subsubsection}{Structure overview}{6}{section*.7}}
\@writefile{toc}{\contentsline {subsubsection}{The solver's \emph  {events} system}{6}{section*.8}}
\citation{adel1}
\bibdata{report.bib}
\@writefile{toc}{\contentsline {section}{\numberline {1.4}Results}{7}{section.1.4}}
\@writefile{lol}{\addvspace {10pt}}
\@writefile{lof}{\contentsline {figure}{\numberline {1.5}{\ignorespaces 3D plot of a 2-dimensional muon trajectory, with time on the vertical axis. The first 10 simulation steps are highlighted in red, to show the typical size of a step $\Delta y = y_{i+1}(t_i+\Delta t)- y_i(t_i)$.\relax }}{8}{figure.caption.9}}
\newlabel{fig:XYt}{{1.5}{8}{3D plot of a 2-dimensional muon trajectory, with time on the vertical axis. The first 10 simulation steps are highlighted in red, to show the typical size of a step $\Delta y = y_{i+1}(t_i+\Delta t)- y_i(t_i)$.\relax }{figure.caption.9}{}}
\newlabel{fig:XYt@cref}{{[figure][5][1]1.5}{[1][7][]8}}
\@writefile{lof}{\contentsline {figure}{\numberline {1.6}{\ignorespaces View from above of the 2D coordinates $X$ and $Y$. The perturbator position is shown by the blue ring sector. In red the entry injection orbit is shown, while in blue the final orbit. The relative centers have been plotted, to illustrate the orbit repositioning closer to the ideal orbit, centered around $(0, 0)$ \relax }}{9}{figure.caption.10}}
\newlabel{fig:XY}{{1.6}{9}{View from above of the 2D coordinates $X$ and $Y$. The perturbator position is shown by the blue ring sector. In red the entry injection orbit is shown, while in blue the final orbit. The relative centers have been plotted, to illustrate the orbit repositioning closer to the ideal orbit, centered around $(0, 0)$ \relax }{figure.caption.10}{}}
\newlabel{fig:XY@cref}{{[figure][6][1]1.6}{[1][7][]9}}
\@writefile{lof}{\contentsline {figure}{\numberline {1.7}{\ignorespaces Plot showing $r(x(t), y(t))-r0$, the particle distance from the z-axis over time minus the radius $r0$ of the ideal orbit. The particle oscillates around the ideal orbit by weak focusing, as shown in Fig.\nobreakspace  {}\ref  {fig:XY}. The perturbator effect is clearly shown, with the orbit first centering then the difference starts to grow again, but the perturbator ramping down at the right moment prevents this.\relax }}{10}{figure.caption.11}}
\newlabel{fig:r_diff}{{1.7}{10}{Plot showing $r(x(t), y(t))-r0$, the particle distance from the z-axis over time minus the radius $r0$ of the ideal orbit. The particle oscillates around the ideal orbit by weak focusing, as shown in Fig.~\ref {fig:XY}. The perturbator effect is clearly shown, with the orbit first centering then the difference starts to grow again, but the perturbator ramping down at the right moment prevents this.\relax }{figure.caption.11}{}}
\newlabel{fig:r_diff@cref}{{[figure][7][1]1.7}{[1][7][]10}}
\@writefile{lof}{\contentsline {figure}{\numberline {1.8}{\ignorespaces Plot showing the intersection of particle orbits with the semi plane of positive X axis and Z, with the radial velocity $R'=X'$ in the vertical axis. The simulated time is $5\ \mu $seconds, corresponding to 433 completed turns for all particles at the end points (blue). The vertical dashed line corresponds to the theoretical stable orbit radius. Each red dot corresponds to the injection of a particle, each one showing different possible initial conditions. The ``trajectory'' of subsequent plane intersections in each turn is colored here according to the perturbator strength factor $k(t)$ at that time. \relax }}{11}{figure.caption.12}}
\newlabel{fig:sec35_mag}{{1.8}{11}{Plot showing the intersection of particle orbits with the semi plane of positive X axis and Z, with the radial velocity $R'=X'$ in the vertical axis. The simulated time is $5\ \mu $seconds, corresponding to 433 completed turns for all particles at the end points (blue). The vertical dashed line corresponds to the theoretical stable orbit radius. Each red dot corresponds to the injection of a particle, each one showing different possible initial conditions. The ``trajectory'' of subsequent plane intersections in each turn is colored here according to the perturbator strength factor $k(t)$ at that time. \relax }{figure.caption.12}{}}
\newlabel{fig:sec35_mag@cref}{{[figure][8][1]1.8}{[1][7][]11}}
\@writefile{lof}{\contentsline {figure}{\numberline {1.9}{\ignorespaces Plot showing the intersection of particle orbits with the semi plane of positive X axis and Z, with the radial velocity $R'=X'$ in the vertical axis. The simulated time is $5\ \mu $seconds, corresponding to 433 completed turns for all particles at the end points (blue). The vertical dashed line corresponds to the theoretical stable orbit radius. Each red dot corresponds to the injection of a particle, each one showing different possible initial conditions. Here the color of the ``trajectory'' of subsequent plane intersections in each turn is derived from the particle decay exponential distribution: less than 50\% of particles will survive long enough to reach the blue part of the trajectory. \relax }}{12}{figure.caption.13}}
\newlabel{fig:sec35_dec}{{1.9}{12}{Plot showing the intersection of particle orbits with the semi plane of positive X axis and Z, with the radial velocity $R'=X'$ in the vertical axis. The simulated time is $5\ \mu $seconds, corresponding to 433 completed turns for all particles at the end points (blue). The vertical dashed line corresponds to the theoretical stable orbit radius. Each red dot corresponds to the injection of a particle, each one showing different possible initial conditions. Here the color of the ``trajectory'' of subsequent plane intersections in each turn is derived from the particle decay exponential distribution: less than 50\% of particles will survive long enough to reach the blue part of the trajectory. \relax }{figure.caption.13}{}}
\newlabel{fig:sec35_dec@cref}{{[figure][9][1]1.9}{[1][7][]12}}
\@writefile{lof}{\contentsline {figure}{\numberline {1.10}{\ignorespaces Intersection trajectories limiting initial radial velocities to be $<10\ \mu $rad, magnet strength coloring. \relax }}{13}{figure.caption.14}}
\newlabel{fig:sec25_mag}{{1.10}{13}{Intersection trajectories limiting initial radial velocities to be $<10\ \mu $rad, magnet strength coloring. \relax }{figure.caption.14}{}}
\newlabel{fig:sec25_mag@cref}{{[figure][10][1]1.10}{[1][7][]13}}
\@writefile{lof}{\contentsline {figure}{\numberline {1.11}{\ignorespaces Intersection trajectories limiting initial radial velocities to be $<10\ \mu $rad, decay coloring. \relax }}{13}{figure.caption.15}}
\newlabel{fig:sec35_dec}{{1.11}{13}{Intersection trajectories limiting initial radial velocities to be $<10\ \mu $rad, decay coloring. \relax }{figure.caption.15}{}}
\newlabel{fig:sec35_dec@cref}{{[figure][11][1]1.11}{[1][7][]13}}
\bibcite{adel1}{1}
\bibcite{inj1}{2}
\bibcite{frozspin}{3}
\bibcite{grav1}{4}
\bibcite{solveivp}{5}
