\relax 
\providecommand\hyper@newdestlabel[2]{}
\providecommand\HyperFirstAtBeginDocument{\AtBeginDocument}
\HyperFirstAtBeginDocument{\ifx\hyper@anchor\@undefined
\global\let\oldcontentsline\contentsline
\gdef\contentsline#1#2#3#4{\oldcontentsline{#1}{#2}{#3}}
\global\let\oldnewlabel\newlabel
\gdef\newlabel#1#2{\newlabelxx{#1}#2}
\gdef\newlabelxx#1#2#3#4#5#6{\oldnewlabel{#1}{{#2}{#3}}}
\AtEndDocument{\ifx\hyper@anchor\@undefined
\let\contentsline\oldcontentsline
\let\newlabel\oldnewlabel
\fi}
\fi}
\global\let\hyper@last\relax 
\gdef\HyperFirstAtBeginDocument#1{#1}
\providecommand\HyField@AuxAddToFields[1]{}
\providecommand\HyField@AuxAddToCoFields[2]{}
\@writefile{toc}{\contentsline {subsection}{Introduction}{1}{section*.1}}
\newlabel{introduction}{{}{1}{Introduction}{section*.1}{}}
\@writefile{toc}{\contentsline {subsection}{The idea}{1}{section*.2}}
\newlabel{the-idea}{{}{1}{The idea}{section*.2}{}}
\@writefile{lof}{\contentsline {figure}{\numberline {1}{\ignorespaces }}{1}{figure.1}}
\newlabel{fig:prism}{{1}{1}{}{figure.1}{}}
\@writefile{lof}{\contentsline {figure}{\numberline {2}{\ignorespaces }}{1}{figure.2}}
\newlabel{fig:prism}{{2}{1}{}{figure.2}{}}
