\relax 
\providecommand\hyper@newdestlabel[2]{}
\providecommand\HyperFirstAtBeginDocument{\AtBeginDocument}
\HyperFirstAtBeginDocument{\ifx\hyper@anchor\@undefined
\global\let\oldcontentsline\contentsline
\gdef\contentsline#1#2#3#4{\oldcontentsline{#1}{#2}{#3}}
\global\let\oldnewlabel\newlabel
\gdef\newlabel#1#2{\newlabelxx{#1}#2}
\gdef\newlabelxx#1#2#3#4#5#6{\oldnewlabel{#1}{{#2}{#3}}}
\AtEndDocument{\ifx\hyper@anchor\@undefined
\let\contentsline\oldcontentsline
\let\newlabel\oldnewlabel
\fi}
\fi}
\global\let\hyper@last\relax 
\gdef\HyperFirstAtBeginDocument#1{#1}
\providecommand*\HyPL@Entry[1]{}
\HyPL@Entry{0<</P(1)>>}
\@writefile{nav}{\headcommand {\slideentry {0}{0}{1}{1/1}{}{0}}}
\@writefile{nav}{\headcommand {\beamer@framepages {1}{1}}}
\HyPL@Entry{1<</P(2)>>}
\@writefile{toc}{\beamer@sectionintoc {1}{Introduction}{2}{0}{1}}
\@writefile{nav}{\headcommand {\beamer@sectionpages {1}{1}}}
\@writefile{nav}{\headcommand {\beamer@subsectionpages {1}{1}}}
\@writefile{nav}{\headcommand {\sectionentry {1}{Introduction}{2}{Introduction}{0}}}
\pgfsyspdfmark {pgfid2}{1864679}{15814538}
\@writefile{nav}{\headcommand {\slideentry {1}{0}{1}{2/2}{}{0}}}
\@writefile{nav}{\headcommand {\beamer@framepages {2}{2}}}
\HyPL@Entry{2<</P(3)>>}
\pgfsyspdfmark {pgfid3}{1864679}{15814538}
\@writefile{nav}{\headcommand {\slideentry {1}{0}{2}{3/3}{}{0}}}
\@writefile{nav}{\headcommand {\beamer@framepages {3}{3}}}
\HyPL@Entry{3<</P(4)>>}
\pgfsyspdfmark {pgfid4}{1864679}{15814538}
\@writefile{nav}{\headcommand {\slideentry {1}{0}{3}{4/4}{}{0}}}
\@writefile{nav}{\headcommand {\beamer@framepages {4}{4}}}
\HyPL@Entry{4<</P(5)>>}
\pgfsyspdfmark {pgfid5}{1864679}{15814538}
\pgfsyspdfmark {pgfid6}{1864679}{15814538}
\@writefile{nav}{\headcommand {\slideentry {1}{0}{4}{5/6}{}{0}}}
\@writefile{nav}{\headcommand {\beamer@framepages {5}{6}}}
\HyPL@Entry{6<</P(6)>>}
\@writefile{toc}{\beamer@sectionintoc {2}{Theory}{7}{0}{2}}
\@writefile{nav}{\headcommand {\beamer@sectionpages {2}{6}}}
\@writefile{nav}{\headcommand {\beamer@subsectionpages {2}{6}}}
\@writefile{nav}{\headcommand {\sectionentry {2}{Theory}{7}{Theory}{0}}}
\pgfsyspdfmark {pgfid7}{1864679}{15814538}
\@writefile{nav}{\headcommand {\slideentry {2}{0}{1}{7/7}{}{0}}}
\@writefile{nav}{\headcommand {\beamer@framepages {7}{7}}}
\HyPL@Entry{7<</P(7)>>}
\pgfsyspdfmark {pgfid8}{1864679}{15814538}
\@writefile{nav}{\headcommand {\slideentry {2}{0}{2}{8/8}{}{0}}}
\@writefile{nav}{\headcommand {\beamer@framepages {8}{8}}}
\HyPL@Entry{8<</P(8)>>}
\@writefile{toc}{\beamer@sectionintoc {3}{Models used}{9}{0}{3}}
\@writefile{nav}{\headcommand {\beamer@sectionpages {7}{8}}}
\@writefile{nav}{\headcommand {\beamer@subsectionpages {7}{8}}}
\@writefile{nav}{\headcommand {\sectionentry {3}{Models used}{9}{Models used}{0}}}
\pgfsyspdfmark {pgfid9}{1864679}{15814538}
\@writefile{nav}{\headcommand {\slideentry {3}{0}{1}{9/9}{}{0}}}
\@writefile{nav}{\headcommand {\beamer@framepages {9}{9}}}
\HyPL@Entry{9<</P(9)>>}
\@writefile{toc}{\beamer@sectionintoc {4}{Distribution generation}{10}{0}{4}}
\@writefile{nav}{\headcommand {\beamer@sectionpages {9}{9}}}
\@writefile{nav}{\headcommand {\beamer@subsectionpages {9}{9}}}
\@writefile{nav}{\headcommand {\sectionentry {4}{Distribution generation}{10}{Distribution generation}{0}}}
\pgfsyspdfmark {pgfid10}{1864679}{15814538}
\@writefile{nav}{\headcommand {\slideentry {4}{0}{1}{10/10}{}{0}}}
\@writefile{nav}{\headcommand {\beamer@framepages {10}{10}}}
\HyPL@Entry{10<</P(10)>>}
\pgfsyspdfmark {pgfid11}{1864679}{15814538}
\@writefile{nav}{\headcommand {\slideentry {4}{0}{2}{11/11}{}{0}}}
\@writefile{nav}{\headcommand {\beamer@framepages {11}{11}}}
\HyPL@Entry{11<</P(11)>>}
\pgfsyspdfmark {pgfid12}{1864679}{15814538}
\@writefile{nav}{\headcommand {\slideentry {4}{0}{3}{12/12}{}{0}}}
\@writefile{nav}{\headcommand {\beamer@framepages {12}{12}}}
\HyPL@Entry{12<</P(12)>>}
\pgfsyspdfmark {pgfid13}{1864679}{15814538}
\@writefile{nav}{\headcommand {\slideentry {4}{0}{4}{13/13}{}{0}}}
\@writefile{nav}{\headcommand {\beamer@framepages {13}{13}}}
\HyPL@Entry{13<</P(13)>>}
\pgfsyspdfmark {pgfid14}{1864679}{15814538}
\@writefile{nav}{\headcommand {\slideentry {4}{0}{5}{14/14}{}{0}}}
\@writefile{nav}{\headcommand {\beamer@framepages {14}{14}}}
\@writefile{nav}{\headcommand {\beamer@partpages {1}{14}}}
\@writefile{nav}{\headcommand {\beamer@subsectionpages {10}{14}}}
\@writefile{nav}{\headcommand {\beamer@sectionpages {10}{14}}}
\@writefile{nav}{\headcommand {\beamer@documentpages {14}}}
\@writefile{nav}{\headcommand {\gdef \inserttotalframenumber {13}}}
